{
    "terminal.integrated.copyOnSelection": true,
    "terminal.integrated.defaultProfile.windows": "C:/Windows/System32/cmd.exe",
    "terminal.integrated.defaultProfile.linux": "bash",
    "terminal.integrated.cursorStyle": "line",
    "terminal.integrated.gpuAcceleration": "off",
    "terminal.integrated.tabs.enabled": true,
    "workbench.iconTheme": "material-icon-theme",
    "debug.allowBreakpointsEverywhere": true,
    "workbench.startupEditor": "newUntitledFile",
    "workbench.colorCustomizations": {
        "editorCursor.foreground": "#BE8EE3",
    },
    "workbench.editorAssociations": {
        "*.ipynb": "jupyter-notebook"
    },
    // ================== TELEMTRY =========================
    "telemetry.telemetryLevel": "off",
    // ================== EDITOR =========================
    "editor.fontFamily": "Cascadia Code, JetBrains Mono, Consolas, 'Courier New', monospace",
    "editor.fontLigatures": true,
    "editor.tabSize": 4,
    "editor.detectIndentation": false,
    "editor.insertSpaces": true,
    "editor.lineNumbers": "relative",
    "editor.scrollBeyondLastLine" :false,
    "editor.minimap.enabled": false,
    "editor.renderWhitespace": "all",
    "editor.cursorBlinking": "solid",
    "editor.rulers": [
        80
    ],
    "[makefile]": {
        "editor.insertSpaces": false
    },
    "python.languageServer": "Jedi",
    // ================== VIM =========================
    "vim.hlsearch": false,
    "vim.incsearch": true,
    "vim.ignorecase": true,
    "vim.smartcase": true,
    "vim.useSystemClipboard": true,
    "vim.useCtrlKeys": true,
    "vim.mouseSelectionGoesIntoVisualMode": true,
    "vim.surround": true,
    "vim.startInInsertMode": false,
    "vim.leader": "<space>",
    "vim.normalModeKeyBindingsNonRecursive": [
        {
            "before": ["K"], "commands":["editor.action.showHover"]
        },
        // {
        //     "before": ["p"], "after":["p", "=", "`", "]"]
        // },
        // {
        //     "before": ["P"], "after": ["P", "=", "`", "]"]
        // },
        {
            "before": ["c", "d"], "after": [ "c", "t", "_" ]
        },
        {
            "before": ["d", "c"], "after":["d", "t", "_"]
        }
    ],
    "vim.visualModeKeyBindings": [
        {
            "before": [ ">" ], "commands": ["editor.action.indentLines"]
        },
        {
            "before": [ "<" ], "commands": ["editor.action.outdentLines"]
        },
    ],
    "vim.handleKeys": {
        "<C-a>": false,
        "<C-f>": false,
        "<C-c>": false,
        "<C-v>": true
    },
    "vim.camelCaseMotion.enable": true,
    "vim.textwidth": 80,
    "vim.easymotion": true,
    "cSpell.userWords": [
        "ASLR",
        "binwalk",
        "bootloader",
        "Delarosa",
        "Ghidra",
        "hexdump",
        "inotify",
        "jumptable",
        "kubescape",
        "osport",
        "pcrypt",
        "PLCs",
        "RTUs",
        "SCADA",
        "toolchain",
        "yara"
    ],
    "cSpell.checkLimit": 5000,
    "cSpell.allowCompoundWords": true,

    "diffEditor.ignoreTrimWhitespace": false,

    "explorer.confirmDragAndDrop": false,
    "explorer.confirmDelete": false,

    "workbench.editor.enablePreview": true,
    "notebook.cellToolbarLocation": {
        "default": "right",
        "jupyter-notebook": "left"
    },
    "extensions.ignoreRecommendations": true,
    "clangd.onConfigChanged": "restart",

    "security.workspace.trust.banner": "never",
    "security.workspace.trust.untrustedFiles": "open",
    "workbench.colorTheme": "Dracula",
    "debug.javascript.suggestPrettyPrinting": false,
}
